{
  "content": [
    {
      "serial": 1749,
      "carId": 136,
      "alermType": "1304",
      "longitude": 118.93140419223953,
      "latitude": 32.14438574822724,
      "alermTime": "20160510110934",
      "alermAddress": "江苏省南京市栖霞区栖霞大道212号",
      "isRead": "1",
      "alermName": "急减速告警"
    },
    {
      "serial": 1748,
      "carId": 136,
      "alermType": "1304",
      "longitude": 118.91167754130174,
      "latitude": 32.134199565060854,
      "alermTime": "20160510110727",
      "alermAddress": "江苏省南京市栖霞区栖霞大道",
      "isRead": "1",
      "alermName": "急减速告警"
    },
    {
      "serial": 1746,
      "carId": 136,
      "alermType": "1304",
      "longitude": 118.88742227862816,
      "latitude": 32.1557446470849,
      "alermTime": "20160510091032",
      "alermAddress": "江苏省南京市栖霞区恒谊路",
      "isRead": "1",
      "alermName": "急减速告警"
    },
    {
      "serial": 1718,
      "carId": 136,
      "alermType": "1304",
      "longitude": 118.91737574230739,
      "latitude": 32.10066143569862,
      "alermTime": "20160508131953",
      "alermAddress": "江苏省南京市栖霞区文澜路",
      "isRead": "1",
      "alermName": "急减速告警"
    },
    {
      "serial": 1688,
      "carId": 136,
      "alermType": "1304",
      "longitude": 118.81903532911407,
      "latitude": 32.12024287075693,
      "alermTime": "20160507211641",
      "alermAddress": "江苏省南京市栖霞区和燕路412号",
      "isRead": "1",
      "alermName": "急减速告警"
    },
    {
      "serial": 1668,
      "carId": 136,
      "alermType": "1304",
      "longitude": 118.79507501153907,
      "latitude": 32.04106484932666,
      "alermTime": "20160505114839",
      "alermAddress": "江苏省南京市秦淮区中山东路288-3号-5楼",
      "isRead": "1",
      "alermName": "急减速告警"
    },
    {
      "serial": 1651,
      "carId": 136,
      "alermType": "1304",
      "longitude": 118.99718595547094,
      "latitude": 32.146287469049504,
      "alermTime": "20160503124841",
      "alermAddress": "江苏省南京市栖霞区x303",
      "isRead": "1",
      "alermName": "急减速告警"
    },
    {
      "serial": 1591,
      "carId": 136,
      "alermType": "1304",
      "longitude": 118.92996665772495,
      "latitude": 31.731626703190475,
      "alermTime": "20160429100133",
      "alermAddress": "江苏省南京市溧水区s243",
      "isRead": "1",
      "alermName": "急减速告警"
    },
    {
      "serial": 1573,
      "carId": 136,
      "alermType": "1304",
      "longitude": 118.83760970397499,
      "latitude": 32.14195077057359,
      "alermTime": "20160427082359",
      "alermAddress": "江苏省南京市栖霞区太新路92-1号",
      "isRead": "1",
      "alermName": "急减速告警"
    },
    {
      "serial": 1545,
      "carId": 136,
      "alermType": "1304",
      "longitude": 118.89680302630848,
      "latitude": 32.15427084982775,
      "alermTime": "20160423164221",
      "alermAddress": "江苏省南京市栖霞区恒泰路",
      "isRead": "1",
      "alermName": "急减速告警"
    }
  ],
  "sort": null,
  "totalElements": 94,
  "numberOfElements": 10,
  "totalPages": 10,
  "firstPage": true,
  "lastPage": false,
  "size": 10,
  "number": 0
}